{
  "swagger": "2.0",
  "info": {
    "title": "eventor.proto",
    "version": "version not set"
  },
  "consumes": [
    "application/json"
  ],
  "produces": [
    "application/json"
  ],
  "paths": {
    "/event": {
      "get": {
        "summary": "Получить все типы событий.",
        "operationId": "Eventor_GetEvents",
        "responses": {
          "200": {
            "description": "A successful response.",
            "schema": {
              "$ref": "#/definitions/Events"
            }
          },
          "default": {
            "description": "An unexpected error response.",
            "schema": {
              "$ref": "#/definitions/runtimeError"
            }
          }
        },
        "tags": [
          "Eventor"
        ]
      },
      "post": {
        "operationId": "Eventor_AddEvent",
        "responses": {
          "200": {
            "description": "A successful response.",
            "schema": {
              "$ref": "#/definitions/Empty"
            }
          },
          "default": {
            "description": "An unexpected error response.",
            "schema": {
              "$ref": "#/definitions/runtimeError"
            }
          }
        },
        "parameters": [
          {
            "name": "body",
            "in": "body",
            "required": true,
            "schema": {
              "$ref": "#/definitions/AddEventRequest"
            }
          }
        ],
        "tags": [
          "Eventor"
        ]
      }
    }
  },
  "definitions": {
    "AddEventRequest": {
      "type": "object",
      "properties": {
        "ID": {
          "type": "string",
          "format": "int64"
        },
        "Name": {
          "type": "string"
        }
      }
    },
    "Empty": {
      "type": "object"
    },
    "Event": {
      "type": "object",
      "properties": {
        "ID": {
          "type": "string",
          "format": "int64"
        },
        "Name": {
          "type": "string"
        }
      }
    },
    "Events": {
      "type": "object",
      "properties": {
        "Events": {
          "type": "array",
          "items": {
            "$ref": "#/definitions/Event"
          }
        }
      }
    },
    "protobufAny": {
      "type": "object",
      "properties": {
        "type_url": {
          "type": "string"
        },
        "value": {
          "type": "string",
          "format": "byte"
        }
      }
    },
    "runtimeError": {
      "type": "object",
      "properties": {
        "error": {
          "type": "string"
        },
        "code": {
          "type": "integer",
          "format": "int32"
        },
        "message": {
          "type": "string"
        },
        "details": {
          "type": "array",
          "items": {
            "$ref": "#/definitions/protobufAny"
          }
        }
      }
    }
  }
}
